<?xml version="1.0" encoding="UTF-8" standalone="no"?>
<!-- Created with Inkscape (http://www.inkscape.org/) -->

<svg
   width="500"
   height="500"
   viewBox="0 0 132.29166 132.29167"
   version="1.1"
   id="svg5"
   inkscape:version="1.2.1 (9c6d41e410, 2022-07-14)"
   sodipodi:docname="antibot.svg"
   inkscape:export-filename="robots-txt.png"
   inkscape:export-xdpi="98.304001"
   inkscape:export-ydpi="98.304001"
   xml:space="preserve"
   xmlns:inkscape="http://www.inkscape.org/namespaces/inkscape"
   xmlns:sodipodi="http://sodipodi.sourceforge.net/DTD/sodipodi-0.dtd"
   xmlns="http://www.w3.org/2000/svg"
   xmlns:svg="http://www.w3.org/2000/svg"><sodipodi:namedview
     id="namedview7"
     pagecolor="#ffffff"
     bordercolor="#666666"
     borderopacity="1.0"
     inkscape:showpageshadow="2"
     inkscape:pageopacity="0.0"
     inkscape:pagecheckerboard="0"
     inkscape:deskcolor="#d1d1d1"
     inkscape:document-units="mm"
     showgrid="false"
     inkscape:zoom="0.84096521"
     inkscape:cx="349.59829"
     inkscape:cy="387.64981"
     inkscape:window-width="1803"
     inkscape:window-height="1133"
     inkscape:window-x="0"
     inkscape:window-y="32"
     inkscape:window-maximized="1"
     inkscape:current-layer="layer7"
     showguides="true"><sodipodi:guide
       position="89.877462,37.074945"
       orientation="0,-1"
       id="guide2936"
       inkscape:locked="false" /></sodipodi:namedview><defs
     id="defs2" /><g
     inkscape:label="Background Medium"
     inkscape:groupmode="layer"
     id="g3959"><rect
       style="fill:#9dbae4;fill-opacity:1;stroke:#808080;stroke-width:0.00265549;stop-color:#000000"
       id="rect3957"
       width="132.28902"
       height="132.28902"
       x="0.001327745"
       y="0.001327745"
       ry="0"
       inkscape:export-filename="./rect3957.png"
       inkscape:export-xdpi="98.304001"
       inkscape:export-ydpi="98.304001" /></g><g
     inkscape:groupmode="layer"
     id="layer7"
     inkscape:label="Robot"><g
       id="g1160"
       transform="matrix(0.86086603,0,0,0.86086603,9.0083769,9.2184053)"><rect
         style="fill:#ffffff;fill-opacity:1;stroke:none;stroke-width:0.00285834;stop-color:#000000"
         id="rect5410"
         width="36.448383"
         height="48.276024"
         x="51.165997"
         y="57.186752"
         ry="7.8499184" /><rect
         style="fill:#ffffff;fill-opacity:1;stroke:none;stroke-width:0.00285834;stop-color:#000000"
         id="rect5416"
         width="26.707642"
         height="6.1371632"
         x="56.626896"
         y="106.55592"
         ry="3.0685816" /><g
         id="g5588"
         transform="matrix(1.0803193,0,0,1.0803193,-3.3692048,-2.466684)"><rect
           style="fill:#ffffff;fill-opacity:1;stroke:none;stroke-width:0.00342159;stop-color:#000000"
           id="rect5304"
           width="43.001564"
           height="28.207565"
           x="45.967567"
           y="20.627983"
           ry="7.266295" /><rect
           style="fill:#ffffff;fill-opacity:1;stroke:none;stroke-width:0.00264583;stop-color:#000000"
           id="rect5418"
           width="13.258918"
           height="4.4622407"
           x="60.533909"
           y="49.735073"
           ry="2.2311203" /><rect
           style="fill:#2c5aa0;fill-opacity:1;stroke:none;stroke-width:0.00264583;stop-color:#000000"
           id="rect5420"
           width="25.183895"
           height="16.108553"
           x="55.260983"
           y="23.950474"
           ry="4.5469604" /><circle
           style="fill:none;fill-opacity:1;stroke:#ffffff;stroke-width:1.103;stroke-dasharray:none;stop-color:#000000"
           id="path5538"
           cx="62.361446"
           cy="29.875097"
           r="2.7944262" /><circle
           style="fill:none;fill-opacity:1;stroke:#ffffff;stroke-width:1.103;stroke-dasharray:none;stop-color:#000000"
           id="circle5540"
           cx="72.894371"
           cy="30.021553"
           r="2.7944262" /></g><g
         id="g5565"
         transform="matrix(1.0803193,0,0,1.0803193,-3.3692048,-2.466684)"><rect
           style="fill:#ffffff;fill-opacity:1;stroke:none;stroke-width:0.00204996;stop-color:#000000"
           id="rect5412"
           width="18.957436"
           height="11.684855"
           x="105.26213"
           y="-16.233416"
           ry="4.1244512"
           transform="rotate(40.129846)" /><rect
           style="fill:#ffffff;fill-opacity:1;stroke:none;stroke-width:0.00204996;stop-color:#000000"
           id="rect5474"
           width="18.957436"
           height="11.684855"
           x="58.42067"
           y="-118.35538"
           ry="4.1244512"
           transform="rotate(99.406222)"
           inkscape:transform-center-x="2.7544493"
           inkscape:transform-center-y="1.6176548" /><rect
           style="fill:#ffffff;fill-opacity:1;stroke:none;stroke-width:0.00264583;stop-color:#000000"
           id="rect5478"
           width="6.7613435"
           height="5.098794"
           x="113.10521"
           y="71.155243"
           ry="2.0682278"
           transform="rotate(12.792384)" /><rect
           style="fill:#ffffff;fill-opacity:1;stroke:none;stroke-width:0.00324765;stop-color:#000000"
           id="rect5480"
           width="2.7463946"
           height="5.3100224"
           x="129.96928"
           y="36.08691"
           ry="1.3731973"
           transform="rotate(31.20798)" /><rect
           style="fill:#ffffff;fill-opacity:1;stroke:none;stroke-width:0.00324765;stop-color:#000000"
           id="rect5482"
           width="2.7463946"
           height="5.3100224"
           x="112.47105"
           y="-71.43148"
           ry="1.3731973"
           transform="rotate(77.808723)" /><rect
           style="fill:#ffffff;fill-opacity:1;stroke:none;stroke-width:0.00324765;stop-color:#000000"
           id="rect5484"
           width="2.7463946"
           height="5.3100224"
           x="116.87241"
           y="72.838951"
           ry="1.3731973"
           transform="rotate(14.543165)" /><rect
           style="fill:#ffffff;fill-opacity:1;stroke:none;stroke-width:0.00324765;stop-color:#000000"
           id="rect5556"
           width="2.7463946"
           height="5.3100224"
           x="90.695007"
           y="106.8763"
           ry="1.3731973"
           transform="rotate(-3.7406424)" /></g><g
         id="g5581"
         transform="matrix(-0.99784654,0.41399526,-0.41399526,-0.99784654,161.36528,87.796281)"><rect
           style="fill:#ffffff;fill-opacity:1;stroke:none;stroke-width:0.00204996;stop-color:#000000"
           id="rect5567"
           width="18.957436"
           height="11.684855"
           x="105.26213"
           y="-16.233416"
           ry="4.1244512"
           transform="rotate(40.129846)" /><rect
           style="fill:#ffffff;fill-opacity:1;stroke:none;stroke-width:0.00204996;stop-color:#000000"
           id="rect5569"
           width="18.957436"
           height="11.684855"
           x="58.42067"
           y="-118.35538"
           ry="4.1244512"
           transform="rotate(99.406222)"
           inkscape:transform-center-x="2.7544493"
           inkscape:transform-center-y="1.6176548" /><rect
           style="fill:#ffffff;fill-opacity:1;stroke:none;stroke-width:0.00264583;stop-color:#000000"
           id="rect5571"
           width="6.7613435"
           height="5.098794"
           x="113.10521"
           y="71.155243"
           ry="2.0682278"
           transform="rotate(12.792384)" /><rect
           style="fill:#ffffff;fill-opacity:1;stroke:none;stroke-width:0.00324765;stop-color:#000000"
           id="rect5573"
           width="2.7463946"
           height="5.3100224"
           x="129.96928"
           y="36.08691"
           ry="1.3731973"
           transform="rotate(31.20798)" /><rect
           style="fill:#ffffff;fill-opacity:1;stroke:none;stroke-width:0.00324765;stop-color:#000000"
           id="rect5575"
           width="2.7463946"
           height="5.3100224"
           x="112.47105"
           y="-71.43148"
           ry="1.3731973"
           transform="rotate(77.808723)" /><rect
           style="fill:#ffffff;fill-opacity:1;stroke:none;stroke-width:0.00324765;stop-color:#000000"
           id="rect5577"
           width="2.7463946"
           height="5.3100224"
           x="116.87241"
           y="72.838951"
           ry="1.3731973"
           transform="rotate(14.543165)" /><rect
           style="fill:#ffffff;fill-opacity:1;stroke:none;stroke-width:0.00324765;stop-color:#000000"
           id="rect5579"
           width="2.7463946"
           height="5.3100224"
           x="90.695007"
           y="106.8763"
           ry="1.3731973"
           transform="rotate(-3.7406424)" /></g></g></g><g
     inkscape:groupmode="layer"
     id="layer8"
     inkscape:label="Anti"><path
       id="path419"
       style="color:#000000;fill:#ff0000;-inkscape-stroke:none"
       d="M 66.702905 3.5470703 C 32.239407 3.5470703 4.1542684 31.634276 4.1542684 66.097774 C 4.1542684 100.56127 32.239407 128.64641 66.702905 128.64641 C 101.16641 128.64641 129.25413 100.56127 129.25413 66.097774 C 129.25413 31.634276 101.16641 3.5470703 66.702905 3.5470703 z M 66.702905 17.371033 C 78.099453 17.371033 88.558831 21.246114 96.840601 27.754895 L 28.36106 96.233403 C 21.852955 87.952126 17.978748 77.494056 17.978748 66.097774 C 17.978748 39.105412 39.710543 17.371033 66.702905 17.371033 z M 107.0715 38.735103 C 112.3501 46.525897 115.42965 55.939149 115.42965 66.097774 C 115.42965 93.090136 93.695267 114.82245 66.702905 114.82245 C 56.544798 114.82245 47.132518 111.74362 39.342301 106.46585 L 107.0715 38.735103 z " /></g></svg>
