<?xml version="1.0" encoding="UTF-8" standalone="no"?>
<!-- Created with Inkscape (http://www.inkscape.org/) -->

<svg
   width="512"
   height="512"
   viewBox="0 0 135.46666 135.46667"
   version="1.1"
   id="svg1"
   xml:space="preserve"
   inkscape:version="1.3.2 (091e20ef0f, 2023-11-25)"
   sodipodi:docname="filter_perms.svg"
   xmlns:inkscape="http://www.inkscape.org/namespaces/inkscape"
   xmlns:sodipodi="http://sodipodi.sourceforge.net/DTD/sodipodi-0.dtd"
   xmlns="http://www.w3.org/2000/svg"
   xmlns:svg="http://www.w3.org/2000/svg"><sodipodi:namedview
     id="namedview1"
     pagecolor="#ffffff"
     bordercolor="#666666"
     borderopacity="1.0"
     inkscape:showpageshadow="2"
     inkscape:pageopacity="0.0"
     inkscape:pagecheckerboard="0"
     inkscape:deskcolor="#d1d1d1"
     inkscape:document-units="mm"
     inkscape:zoom="2.0346855"
     inkscape:cx="217.47832"
     inkscape:cy="243.52658"
     inkscape:window-width="2256"
     inkscape:window-height="1435"
     inkscape:window-x="0"
     inkscape:window-y="32"
     inkscape:window-maximized="1"
     inkscape:current-layer="layer1" /><defs
     id="defs1" /><g
     inkscape:label="Layer 1"
     inkscape:groupmode="layer"
     id="layer1"><rect
       style="fill:#042540;fill-opacity:1;stroke:none;stroke-width:1.5;stroke-linecap:round;stroke-linejoin:round;stroke-dasharray:none;stroke-opacity:1"
       id="rect14"
       width="135.46666"
       height="135.46666"
       x="0"
       y="0" /><path
       id="path2"
       style="fill:#ffffff;stroke:none;stroke-width:0.264583px;stroke-linecap:butt;stroke-linejoin:miter;stroke-opacity:1"
       d="M 73.588379,37.000965 V 15.561235 L 93.882616,37.051366 Z M 66.909264,13.869313 v 26.098962 c 0.09173,1.873946 0.425268,3.603042 3.618902,3.6189 h 24.852487 v 75.344375 c -0.253754,1.63974 -1.19764,2.48426 -2.69316,2.69315 H 23.241614 c -1.981831,-0.15577 -2.810429,-1.399 -3.125997,-3.12599 V 16.81939 c 0.152202,-1.984955 1.279929,-2.919338 3.103906,-3.103906 z" /><path
       style="fill:none;stroke:#042540;stroke-width:3.4;stroke-linecap:round;stroke-linejoin:miter;stroke-opacity:1;stroke-dasharray:none"
       d="M 46.250576,86.667678 H 82.199767"
       id="path4" /><path
       style="fill:none;stroke:#042540;stroke-width:3.4;stroke-linecap:round;stroke-linejoin:miter;stroke-dasharray:none;stroke-opacity:1"
       d="M 46.250576,69.700132 H 82.199767"
       id="path5" /><path
       style="fill:none;stroke:#042540;stroke-width:3.4;stroke-linecap:round;stroke-linejoin:miter;stroke-dasharray:none;stroke-opacity:1"
       d="M 46.250576,52.381606 H 82.199767"
       id="path6" /><circle
       style="fill:#168f7d;fill-opacity:1;stroke:none;stroke-width:1.5;stroke-linecap:round;stroke-linejoin:round;stroke-dasharray:none;stroke-opacity:1"
       id="path14"
       cx="95.34417"
       cy="67.768372"
       r="20.000919" /><path
       style="fill:#ffffff;stroke:none;stroke-width:0.264583px;stroke-linecap:butt;stroke-linejoin:miter;stroke-opacity:1"
       d="M 93.430547,79.638625 V 67.749461 L 85.320933,57.674896 h 20.110657 l -8.062387,10.072938 v 9.966074 z"
       id="path3" /><path
       style="fill:none;stroke:#042540;stroke-width:3.4;stroke-linecap:round;stroke-linejoin:miter;stroke-dasharray:none;stroke-opacity:1"
       d="m 46.250576,103.46515 15.708398,0"
       id="path7"
       sodipodi:nodetypes="cc" /><g
       id="g12"><circle
         style="fill:#019b0a;stroke:#042540;stroke-width:0;stroke-linecap:round;stroke-linejoin:round;stroke-dasharray:none;stroke-opacity:1;fill-opacity:1"
         id="path9"
         cx="36.832714"
         cy="51.998138"
         r="4.5089149" /><path
         style="fill:none;stroke:#ffffff;stroke-width:1.7;stroke-linecap:round;stroke-linejoin:round;stroke-dasharray:none;stroke-opacity:1"
         d="m 34.870027,52.159089 1.195774,1.09978 2.544111,-2.482942"
         id="path8" /></g><g
       id="g11"><circle
         style="fill:#ee1e2c;fill-opacity:1;stroke:#042540;stroke-width:0;stroke-linecap:round;stroke-linejoin:round;stroke-dasharray:none;stroke-opacity:1"
         id="circle11"
         cx="36.832714"
         cy="86.109428"
         r="4.5089149" /><path
         style="fill:none;stroke:#ffffff;stroke-width:1.5;stroke-linecap:round;stroke-linejoin:miter;stroke-dasharray:none;stroke-opacity:1"
         d="m 35.105487,84.444864 3.413626,3.468232"
         id="path10" /><path
         style="fill:none;stroke:#ffffff;stroke-width:1.5;stroke-linecap:round;stroke-linejoin:miter;stroke-dasharray:none;stroke-opacity:1"
         d="m 38.519113,84.444864 -3.413626,3.468232"
         id="path11" /></g><g
       id="g13"
       transform="translate(0,17.037061)"><circle
         style="fill:#019b0a;fill-opacity:1;stroke:#042540;stroke-width:0;stroke-linecap:round;stroke-linejoin:round;stroke-dasharray:none;stroke-opacity:1"
         id="circle12"
         cx="36.832714"
         cy="51.998138"
         r="4.5089149" /><path
         style="fill:none;stroke:#ffffff;stroke-width:1.7;stroke-linecap:round;stroke-linejoin:round;stroke-dasharray:none;stroke-opacity:1"
         d="m 34.870027,52.159089 1.195774,1.09978 2.544111,-2.482942"
         id="path12" /></g><g
       id="g14"
       transform="translate(0,50.272675)"><circle
         style="fill:#019b0a;fill-opacity:1;stroke:#042540;stroke-width:0;stroke-linecap:round;stroke-linejoin:round;stroke-dasharray:none;stroke-opacity:1"
         id="circle13"
         cx="36.832714"
         cy="51.998138"
         r="4.5089149" /><path
         style="fill:none;stroke:#ffffff;stroke-width:1.7;stroke-linecap:round;stroke-linejoin:round;stroke-dasharray:none;stroke-opacity:1"
         d="m 34.870027,52.159089 1.195774,1.09978 2.544111,-2.482942"
         id="path13" /></g></g></svg>
